…
https://pl.wikipedia.org/wiki/Przyrost_rzeczywisty

search_variables("saldo migracji")

## # A tibble: 92 x 8
##       id subjectId n1      n2     n3    level measureUnitId measureUnitName
##    <int> <chr>     <chr>   <chr>  <chr> <int>         <int> <chr>          
##  1  3879 P1362     saldo ~ ogółem ogół~     3            26 osoba          
##  2  3880 P1362     saldo ~ miasta ogół~     3            26 osoba          
##  3  3881 P1362     saldo ~ miasta kobi~     3            26 osoba          
##  4  3882 P1362     saldo ~ miasta mężc~     3            26 osoba          
##  5  3883 P1362     saldo ~ wieś   ogół~     3            26 osoba          
##  6  3884 P1362     saldo ~ wieś   kobi~     3            26 osoba          
##  7  3885 P1362     saldo ~ wieś   mężc~     3            26 osoba          
##  8 32411 P1362     saldo ~ ogółem mężc~     3            26 osoba          
##  9 32412 P1362     saldo ~ ogółem kobi~     3            26 osoba          
## 10 72190 P1351     saldo ~ 60 la~ <NA>      3            26 osoba          
## # ... with 82 more rows
…
